798887 272511
2544 243024
132127 576499
37034 766312
172447 332110
490012 856493
714546 893005
678239 315619
185203 228381
830213 247206
252293 727351
394680 586523
793617 64130
825285 969893
641072 719059
663072 573985
621315 57966
615587 171182
774814 506485
152710 373663
115933 804874
884834 871060
450706 428703
276682 904322
968240 447323
609408 605612
288311 45628
436267 699267
693218 75820
104866 311884
525587 318947
237494 400278
875895 943446
265909 848238
316799 871317
438989 802524
866609 123617
503878 552193
206116 370348
400734 89278
386448 20213
627460 569678
277704 411921
901535 847952
713558 442918
502413 477452
210085 965295
300363 87122
933255 25889
883084 494871
176781 116568
552049 475301
781997 619873
470009 287912
655037 498774
583110 980102
274202 893395
429365 645102
870635 363387
996729 961400
193862 339105
567610 390671
517993 215598
994336 377709
289621 416945
186885 915935
635127 71551
118270 640695
448535 950907
203381 133551
78649 875777
382813 682014
559107 433174
425872 502598
598955 33524
255413 202542
584379 717724
405785 773723
104421 249093
585704 797040
955729 826346
388387 387903
223055 199908
767699 80212
17883 848268
296266 647379
121684 152646
775206 11414
370223 736550
355460 226351
679135 728803
395382 770945
402405 976670
269413 736522
990202 882095
392794 6220
553942 531707
48303 975779
470690 468452
128471 405016
55972 779258
418085 203839
18245 622213
92513 816465
265406 130180
999635 160267
81835 770128
526644 472318
432828 282478
792640 403350
864942 258333
50215 91103
345332 421648
167838 680831
598033 350879
131414 608254
239750 355817
368699 769878
529995 254879
499752 392220
225258 845591
251794 343923
757095 705937
109310 853315
329032 805699
558033 49462
83146 486166
534499 279126
153100 993141
161904 629528
342304 753993
345652 352366
589963 729470
855378 161786
438888 383243
426671 52486
409650 407099
370092 458037
469208 1909
380629 449455
355065 993244
231209 781999
236085 294843
400593 82500
734199 173028
361504 442839
191201 823166
4996 654154
501155 132688
337630 705508
493567 358592
447221 439546
342573 228639
456569 764223
904350 988367
201895 382684
510567 922930
151975 902758
280269 559203
554801 808521
62414 320474
337580 218407
91917 802744
497345 929092
172574 104197
145922 601485
491292 438491
956879 503413
33422 623900
580146 867838
950126 951204
452404 237108
881344 526249
126794 570754
477071 921056
219826 565813
68428 715192
462835 245304
423517 230731
530516 434080
124504 721459
661654 14155
130186 180660
447080 12102
611926 83367
659510 294665
205496 690149
98991 935729
265135 387535
623857 974393
582408 755005
728207 194049
413692 684975
561568 954446
442880 533151
612090 624482
25533 884258
728070 521213
373167 796893
141773 157108
181472 471403
390524 880909
